<?xml version="1.0" encoding="UTF-8" standalone="no"?>
<!DOCTYPE svg PUBLIC "-//W3C//DTD SVG 1.1//EN"
 "http://www.w3.org/Graphics/SVG/1.1/DTD/svg11.dtd">
<!-- Generated by graphviz version 2.30.1 (20130221.2233)
 -->
<!-- Title: XS Pages: 1 -->
<svg width="915pt" height="314pt"
 viewBox="0.00 0.00 915.00 314.00" xmlns="http://www.w3.org/2000/svg" xmlns:xlink="http://www.w3.org/1999/xlink">
<g id="graph0" class="graph" transform="scale(1 1) rotate(0) translate(4 310)">
<title>XS</title>
<polygon fill="white" stroke="white" points="-4,5 -4,-310 912,-310 912,5 -4,5"/>
<!-- mixmeth -->
<g id="node1" class="node"><title>mixmeth</title>
<ellipse fill="lightblue" stroke="lightblue" cx="311" cy="-207" rx="72.1874" ry="26.7407"/>
<text text-anchor="middle" x="311" y="-210.8" font-family="Times,serif" font-size="14.00">XS</text>
<text text-anchor="middle" x="311" y="-195.8" font-family="Times,serif" font-size="14.00">mixed methods</text>
</g>
<!-- NLP -->
<g id="node3" class="node"><title>NLP</title>
<ellipse fill="none" stroke="black" cx="63" cy="-117" rx="63.459" ry="26.7407"/>
<text text-anchor="middle" x="63" y="-120.8" font-family="Times,serif" font-size="14.00">NLP through</text>
<text text-anchor="middle" x="63" y="-105.8" font-family="Times,serif" font-size="14.00">NLTK</text>
</g>
<!-- mixmeth&#45;&gt;NLP -->
<g id="edge3" class="edge"><title>mixmeth&#45;&gt;NLP</title>
<path fill="none" stroke="black" d="M260.069,-187.981C225.148,-175.62 177.763,-158.835 136,-144 127.76,-141.073 118.998,-137.956 110.51,-134.934"/>
</g>
<!-- QCA -->
<g id="node10" class="node"><title>QCA</title>
<ellipse fill="none" stroke="black" cx="175" cy="-117" rx="29.3479" ry="18"/>
<text text-anchor="middle" x="175" y="-113.3" font-family="Times,serif" font-size="14.00">QCA</text>
</g>
<!-- mixmeth&#45;&gt;QCA -->
<g id="edge5" class="edge"><title>mixmeth&#45;&gt;QCA</title>
<path fill="none" stroke="black" d="M275.42,-183.489C257.028,-171.794 234.25,-157.22 214,-144 207.459,-139.73 200.339,-135.006 193.994,-130.769"/>
</g>
<!-- RQDA -->
<g id="node6" class="node"><title>RQDA</title>
<ellipse fill="none" stroke="black" cx="311" cy="-117" rx="88.0829" ry="26.7407"/>
<text text-anchor="middle" x="311" y="-120.8" font-family="Times,serif" font-size="14.00">RQDA for conjoint</text>
<text text-anchor="middle" x="311" y="-105.8" font-family="Times,serif" font-size="14.00">analysis interviews</text>
</g>
<!-- mixmeth&#45;&gt;RQDA -->
<g id="edge7" class="edge"><title>mixmeth&#45;&gt;RQDA</title>
<path fill="none" stroke="black" d="M311,-180.073C311,-168.717 311,-155.416 311,-144.046"/>
</g>
<!-- CAT -->
<g id="node4" class="node"><title>CAT</title>
<ellipse fill="none" stroke="black" cx="464" cy="-117" rx="46.2191" ry="18"/>
<text text-anchor="middle" x="464" y="-113.3" font-family="Times,serif" font-size="14.00">CAT/IRT</text>
</g>
<!-- mixmeth&#45;&gt;CAT -->
<g id="edge9" class="edge"><title>mixmeth&#45;&gt;CAT</title>
<path fill="none" stroke="black" d="M349.214,-184.021C377.36,-167.832 414.823,-146.285 439.172,-132.28"/>
</g>
<!-- fingerprinting -->
<g id="node11" class="node"><title>fingerprinting</title>
<ellipse fill="none" stroke="black" cx="589" cy="-117" rx="60.1672" ry="18"/>
<text text-anchor="middle" x="589" y="-113.3" font-family="Times,serif" font-size="14.00">fingerprinting</text>
</g>
<!-- mixmeth&#45;&gt;fingerprinting -->
<g id="edge11" class="edge"><title>mixmeth&#45;&gt;fingerprinting</title>
<path fill="none" stroke="black" d="M367.816,-190.159C409.807,-178.187 468.254,-160.967 519,-144 530.311,-140.218 542.533,-135.796 553.55,-131.683"/>
</g>
<!-- LOD -->
<g id="node2" class="node"><title>LOD</title>
<ellipse fill="none" stroke="black" cx="558" cy="-27" rx="77.112" ry="26.7407"/>
<text text-anchor="middle" x="558" y="-30.8" font-family="Times,serif" font-size="14.00">linked open data</text>
<text text-anchor="middle" x="558" y="-15.8" font-family="Times,serif" font-size="14.00">RDF</text>
</g>
<!-- GEA -->
<g id="node5" class="node"><title>GEA</title>
<ellipse fill="none" stroke="black" cx="206" cy="-27" rx="120.359" ry="18"/>
<text text-anchor="middle" x="206" y="-23.3" font-family="Times,serif" font-size="14.00">graphical exploratory analysis</text>
</g>
<!-- NLP&#45;&gt;GEA -->
<g id="edge4" class="edge"><title>NLP&#45;&gt;GEA</title>
<path fill="none" stroke="black" d="M97.9817,-94.4728C122.953,-79.106 156.047,-58.7403 178.994,-44.6192"/>
</g>
<!-- CAT&#45;&gt;GEA -->
<g id="edge10" class="edge"><title>CAT&#45;&gt;GEA</title>
<path fill="none" stroke="black" d="M436.693,-102.411C427.671,-98.1672 417.508,-93.6466 408,-90 359.534,-71.4115 302.932,-54.4301 261.995,-42.9582"/>
</g>
<!-- RQDA&#45;&gt;GEA -->
<g id="edge8" class="edge"><title>RQDA&#45;&gt;GEA</title>
<path fill="none" stroke="black" d="M281.752,-91.4871C264.033,-76.637 241.886,-58.0757 226.125,-44.8664"/>
</g>
<!-- TA -->
<g id="node7" class="node"><title>TA</title>
<ellipse fill="none" stroke="black" cx="818" cy="-27" rx="89.1432" ry="26.7407"/>
<text text-anchor="middle" x="818" y="-30.8" font-family="Times,serif" font-size="14.00">training/assessment</text>
<text text-anchor="middle" x="818" y="-15.8" font-family="Times,serif" font-size="14.00">design</text>
</g>
<!-- complex learning IDM -->
<g id="node8" class="node"><title>complex learning IDM</title>
<ellipse fill="none" stroke="black" cx="230" cy="-288" rx="94.3628" ry="18"/>
<text text-anchor="middle" x="230" y="-284.3" font-family="Times,serif" font-size="14.00">complex learning IDM</text>
</g>
<!-- complex learning IDM&#45;&gt;mixmeth -->
<g id="edge1" class="edge"><title>complex learning IDM&#45;&gt;mixmeth</title>
<path fill="none" stroke="black" d="M247.178,-270.246C258.509,-259.195 273.535,-244.54 286.161,-232.226"/>
</g>
<!-- immersion -->
<g id="node9" class="node"><title>immersion</title>
<ellipse fill="none" stroke="black" cx="392" cy="-288" rx="49.0941" ry="18"/>
<text text-anchor="middle" x="392" y="-284.3" font-family="Times,serif" font-size="14.00">immersion</text>
</g>
<!-- immersion&#45;&gt;mixmeth -->
<g id="edge2" class="edge"><title>immersion&#45;&gt;mixmeth</title>
<path fill="none" stroke="black" d="M375.608,-271.013C364.236,-259.922 348.877,-244.942 335.988,-232.371"/>
</g>
<!-- QCA&#45;&gt;GEA -->
<g id="edge6" class="edge"><title>QCA&#45;&gt;GEA</title>
<path fill="none" stroke="black" d="M180.977,-99.0327C186.431,-83.5498 194.454,-60.7757 199.935,-45.2155"/>
</g>
<!-- SEM -->
<g id="node12" class="node"><title>SEM</title>
<ellipse fill="none" stroke="black" cx="434" cy="-27" rx="29.3722" ry="18"/>
<text text-anchor="middle" x="434" y="-23.3" font-family="Times,serif" font-size="14.00">SEM</text>
</g>
<!-- fingerprinting&#45;&gt;SEM -->
<g id="edge12" class="edge"><title>fingerprinting&#45;&gt;SEM</title>
<path fill="none" stroke="black" d="M559.159,-101.359C535.206,-89.3287 500.92,-71.4803 472,-54 465.433,-50.0304 458.447,-45.3818 452.28,-41.1216"/>
</g>
<!-- fingerprinting&#45;&gt;LOD -->
<g id="edge13" class="edge"><title>fingerprinting&#45;&gt;LOD</title>
<path fill="none" stroke="black" d="M583.023,-99.0327C578.519,-86.2468 572.263,-68.4886 567.133,-53.9269"/>
</g>
<!-- SNA -->
<g id="node13" class="node"><title>SNA</title>
<ellipse fill="none" stroke="black" cx="682" cy="-27" rx="29.3722" ry="18"/>
<text text-anchor="middle" x="682" y="-23.3" font-family="Times,serif" font-size="14.00">SNA</text>
</g>
<!-- fingerprinting&#45;&gt;SNA -->
<g id="edge14" class="edge"><title>fingerprinting&#45;&gt;SNA</title>
<path fill="none" stroke="black" d="M606.493,-99.4479C623.856,-83.0178 650.204,-58.0862 666.742,-42.4375"/>
</g>
<!-- fingerprinting&#45;&gt;TA -->
<g id="edge15" class="edge"><title>fingerprinting&#45;&gt;TA</title>
<path fill="none" stroke="black" d="M624.781,-102.25C662.268,-87.8447 721.572,-65.0551 764.599,-48.521"/>
</g>
</g>
</svg>
